TPF_2025J/mostrarFPGA_tb.vcd
$date
	Fri Jun 20 12:51:19 2025
$end
$version
	Icarus Verilog
$end
$timescale
	1ps
$end
$scope module mostrarFPGA_tb $end
$var wire 4 ! leds [3:0] $end
$var parameter 32 " DURATION $end
$var reg 1 # BTN1 $end
$var reg 1 $ BTN2 $end
$var reg 1 % clk $end
$var reg 1 & reset $end
$scope module uut $end
$var wire 1 # BTN1 $end
$var wire 1 $ BTN2 $end
$var wire 1 % CLK $end
$var wire 1 ' LED3 $end
$var wire 1 & RST $end
$var wire 2 ( salida [1:0] $end
$var wire 3 ) num [2:0] $end
$var wire 1 * lleno $end
$var wire 3 + estado [2:0] $end
$var wire 1 , LED2 $end
$var wire 1 - LED1 $end
$var wire 1 . LED0 $end
$scope module cuenta $end
$var wire 1 % clk $end
$var wire 1 & reset $end
$var wire 1 / z1 $end
$var wire 1 0 z2 $end
$var parameter 3 1 S0 $end
$var parameter 3 2 S1 $end
$var parameter 3 3 S2 $end
$var parameter 3 4 S3 $end
$var parameter 3 5 S4 $end
$var parameter 3 6 S5 $end
$var parameter 3 7 S6 $end
$var parameter 3 8 S7 $end
$var reg 3 9 c [2:0] $end
$var reg 1 * lleno $end
$var reg 3 : nextstate [2:0] $end
$var reg 3 ; state [2:0] $end
$upscope $end
$scope module gestion $end
$var wire 1 # A $end
$var wire 1 $ B $end
$var wire 1 < D0 $end
$var wire 1 = D1 $end
$var wire 1 > D2 $end
$var wire 1 % clk $end
$var wire 2 ? salida [1:0] $end
$var wire 3 @ estado [2:0] $end
$var wire 1 A Q2 $end
$var wire 1 B Q1 $end
$var wire 1 C Q0 $end
$scope module flipflipD0 $end
$var wire 1 % Clk $end
$var wire 1 < D $end
$var reg 1 D Q $end
$upscope $end
$scope module flipflipD1 $end
$var wire 1 % Clk $end
$var wire 1 = D $end
$var reg 1 E Q $end
$upscope $end
$scope module flipflipD2 $end
$var wire 1 % Clk $end
$var wire 1 > D $end
$var reg 1 F Q $end
$upscope $end
$upscope $end
$upscope $end
$upscope $end
$enddefinitions $end
$comment Show the parameter values. $end
$dumpall
b111 8
b110 7
b101 6
b100 5
b11 4
b10 3
b1 2
b0 1
b1010 "
$end
#0
$dumpvars
0F
0E
0D
0C
0B
0A
b0 @
b0 ?
0>
0=
0<
b0 ;
b0 :
b0 9
00
0/
0.
0-
0,
b0 +
0*
b0 )
b0 (
0'
1&
0%
0$
0#
b0 !
$end
#500000
1%
#1000000
0%
#1500000
1%
#2000000
0%
0&
#2500000
1%
#3000000
0%
#3500000
1<
1%
1#
#4000000
0%
#4500000
1C
b1 +
b1 @
1D
1%
#5000000
1=
0%
1$
#5500000
1B
b11 +
b11 @
1E
1%
#6000000
0%
#6500000
1>
0=
1%
0#
#7000000
0%
#7500000
1A
0B
1F
b101 +
b101 @
0E
1%
#8000000
0>
0<
b1 :
1/
b1 (
b1 ?
0%
0$
#8500000
0/
b0 (
b0 ?
b1 !
1.
b1 )
b1 9
b1 :
0C
0A
b1 ;
0D
b0 +
b0 @
0F
1%
#9000000
0%
#9500000
1<
1%
1#
#10000000
0%
#10500000
1C
b1 +
b1 @
1D
1%
#11000000
1=
0%
1$
#11500000
1B
b11 +
b11 @
1E
1%
#12000000
0%
#12500000
1>
0=
1%
0#
#13000000
0%
#13500000
1A
0B
1F
b101 +
b101 @
0E
1%
#14000000
0>
0<
b10 :
1/
b1 (
b1 ?
0%
0$
#14500000
0/
b0 (
b0 ?
1-
b10 !
0.
b10 )
b10 9
b10 :
0C
0A
b10 ;
0D
b0 +
b0 @
0F
1%
#15000000
0%
#15500000
1<
1%
1#
#16000000
0%
#16500000
1C
b1 +
b1 @
1D
1%
#17000000
1=
0%
1$
#17500000
1B
b11 +
b11 @
1E
1%
#18000000
0%
#18500000
1>
0=
1%
0#
#19000000
0%
#19500000
1A
0B
1F
b101 +
b101 @
0E
1%
#20000000
0>
0<
b11 :
1/
b1 (
b1 ?
0%
0$
#20500000
0/
b0 (
b0 ?
b11 !
1.
b11 )
b11 9
b11 :
0C
0A
b11 ;
0D
b0 +
b0 @
0F
1%
#21000000
0%
#21500000
1<
1%
1#
#22000000
0%
#22500000
1C
b1 +
b1 @
1D
1%
#23000000
1=
0%
1$
#23500000
1B
b11 +
b11 @
1E
1%
#24000000
0%
#24500000
1>
0=
1%
0#
#25000000
0%
#25500000
1A
0B
1F
b101 +
b101 @
0E
1%
#26000000
0>
0<
b100 :
1/
b1 (
b1 ?
0%
0$
#26500000
0/
b0 (
b0 ?
1,
0-
b100 !
0.
b100 )
b100 9
b100 :
0C
0A
b100 ;
0D
b0 +
b0 @
0F
1%
#27000000
0%
#27500000
1<
1%
1#
#28000000
0%
#28500000
1C
b1 +
b1 @
1D
1%
#29000000
1=
0%
1$
#29500000
1B
b11 +
b11 @
1E
1%
#30000000
0%
#30500000
1>
0=
1%
0#
#31000000
0%
#31500000
1A
0B
1F
b101 +
b101 @
0E
1%
#32000000
0>
0<
b101 :
1/
b1 (
b1 ?
0%
0$
#32500000
0/
b0 (
b0 ?
b101 !
1.
b101 )
b101 9
b101 :
0C
0A
b101 ;
0D
b0 +
b0 @
0F
1%
#33000000
0%
#33500000
1<
1%
1#
#34000000
0%
#34500000
1C
b1 +
b1 @
1D
1%
#35000000
1=
0%
1$
#35500000
1B
b11 +
b11 @
1E
1%
#36000000
0%
#36500000
1>
0=
1%
0#
#37000000
0%
#37500000
1A
0B
1F
b101 +
b101 @
0E
1%
#38000000
0>
0<
b110 :
1/
b1 (
b1 ?
0%
0$
#38500000
0/
b0 (
b0 ?
1-
0.
b110 )
b110 9
b110 !
0'
0*
b110 :
0C
0A
b110 ;
0D
b0 +
b0 @
0F
1%
#39000000
0%
#39500000
1<
1%
1#
#40000000
0%
#40500000
1C
b1 +
b1 @
1D
1%
#41000000
1=
0%
1$
#41500000
1B
b11 +
b11 @
1E
1%
#42000000
0%
#42500000
1>
0=
1%
0#
#43000000
0%
#43500000
1A
0B
1F
b101 +
b101 @
0E
1%
#44000000
0>
0<
b1110 !
1'
1*
b111 :
1/
b1 (
b1 ?
0%
0$
#44500000
0/
b0 (
b0 ?
1.
b111 )
b111 9
b1111 !
1'
1*
0C
0A
b111 ;
0D
b0 +
b0 @
0F
1%
#45000000
0%
#45500000
1=
1%
1$
#46000000
0%
#46500000
1B
b10 +
b10 @
1E
1%
#47000000
0=
1>
0%
1#
#47500000
1A
0B
1F
b100 +
b100 @
0E
1%
#48000000
0%
#48500000
1=
1%
0$
#49000000
0%
#49500000
1B
b110 +
b110 @
1E
1%
#50000000
0=
0>
b110 :
b111 !
0'
0*
10
b10 (
b10 ?
0%
0#
#50500000
00
b0 (
b0 ?
b110 !
0.
b110 )
b110 9
b110 :
0B
0A
b110 ;
0E
b0 +
b0 @
0F
1%
#51000000
0%
#51500000
1=
1%
1$
#52000000
0%
#52500000
1B
b10 +
b10 @
1E
1%
#53000000
0=
1>
0%
1#
#53500000
1A
0B
1F
b100 +
b100 @
0E
1%
#54000000
0%
#54500000
1=
1%
0$
#55000000
0%
#55500000
1B
b110 +
b110 @
1E
1%
#56000000
0=
0>
b101 :
10
b10 (
b10 ?
0%
0#
#56500000
00
b0 (
b0 ?
0-
b101 !
1.
b101 )
b101 9
b101 :
0B
0A
b101 ;
0E
b0 +
b0 @
0F
1%
#57000000
0%
#57500000
1=
1%
1$
#58000000
0%
#58500000
1B
b10 +
b10 @
1E
1%
#59000000
0=
1>
0%
1#
#59500000
1A
0B
1F
b100 +
b100 @
0E
1%
#60000000
0%
#60500000
1=
1%
0$
#61000000
0%
#61500000
1B
b110 +
b110 @
1E
1%
#62000000
0=
0>
b100 :
10
b10 (
b10 ?
0%
0#
#62500000
00
b0 (
b0 ?
b100 !
0.
b100 )
b100 9
b100 :
0B
0A
b100 ;
0E
b0 +
b0 @
0F
1%
#63000000
0%
#63500000
1=
1%
1$
#64000000
0%
#64500000
1B
b10 +
b10 @
1E
1%
#65000000
0=
1>
0%
1#
#65500000
1A
0B
1F
b100 +
b100 @
0E
1%
#66000000
0%
#66500000
1=
1%
0$
#67000000
0%
#67500000
1B
b110 +
b110 @
1E
1%
#68000000
0=
0>
b11 :
10
b10 (
b10 ?
0%
0#
#68500000
00
b0 (
b0 ?
0,
1-
b11 !
1.
b11 )
b11 9
b11 :
0B
0A
b11 ;
0E
b0 +
b0 @
0F
1%
#69000000
0%
#69500000
1=
1%
1$
#70000000
0%
#70500000
1B
b10 +
b10 @
1E
1%
#71000000
0=
1>
0%
1#
#71500000
1A
0B
1F
b100 +
b100 @
0E
1%
#72000000
0%
#72500000
1=
1%
0$
#73000000
0%
#73500000
1B
b110 +
b110 @
1E
1%
#74000000
0=
0>
b10 :
10
b10 (
b10 ?
0%
0#
#74500000
00
b0 (
b0 ?
b10 !
0.
b10 )
b10 9
b10 :
0B
0A
b10 ;
0E
b0 +
b0 @
0F
1%
#75000000
0%
#75500000
1=
1%
1$
#76000000
0%
#76500000
1B
b10 +
b10 @
1E
1%
#77000000
0=
1>
0%
1#
#77500000
1A
0B
1F
b100 +
b100 @
0E
1%
#78000000
0%
#78500000
1=
1%
0$
#79000000
0%
#79500000
1B
b110 +
b110 @
1E
1%
#80000000
0=
0>
b1 :
10
b10 (
b10 ?
0%
0#
#80500000
00
b0 (
b0 ?
0-
b1 !
1.
b1 )
b1 9
b1 :
0B
0A
b1 ;
0E
b0 +
b0 @
0F
1%
#81000000
0%
#81500000
1=
1%
1$
#82000000
0%
#82500000
1B
b10 +
b10 @
1E
1%
#83000000
0=
1>
0%
1#
#83500000
1A
0B
1F
b100 +
b100 @
0E
1%
#84000000
0%
#84500000
1=
1%
0$
#85000000
0%
#85500000
1B
b110 +
b110 @
1E
1%
#86000000
0=
0>
b0 :
10
b10 (
b10 ?
0%
0#
#86500000
00
b0 (
b0 ?
b0 !
0.
b0 )
b0 9
0B
0A
b0 ;
0E
b0 +
b0 @
0F
1%
